lab2/task3.3/ram_wave.vcd
$date
     Sep 21, 2015       23:49:17
$end

$version
 SystemC 2.3.1-Accellera --- Sep  4 2015 19:05:33
$end

$timescale
     1 ps
$end

$scope module SystemC $end
$var wire    8  aaaaa  data [7:0]  $end
$var wire   32  aaaab  address [31:0]  $end
$var wire    1  aaaac  CE       $end
$var wire    1  aaaad  WE       $end
$var wire    8  aaaae  data [7:0]  $end
$var wire   32  aaaaf  address [31:0]  $end
$var wire    1  aaaag  CE       $end
$var wire    1  aaaah  WE       $end
$upscope $end
$enddefinitions  $end

$comment
All initial values are dumped below at time 0 sec = 0 timescale units.
$end

$dumpvars
b0 aaaaa
b0 aaaab
0aaaac
0aaaad
b0 aaaae
b0 aaaaf
0aaaag
0aaaah
$end

#0
b11101100 aaaaa
1aaaac
b11101100 aaaae
1aaaag

#1000
b1100001 aaaaa
b1 aaaab
b1100101 aaaae
b1 aaaaf

#2000
b1101011 aaaaa
b10 aaaab
b1101111 aaaae
b10 aaaaf

#3000
b1110011 aaaaa
b11 aaaab
b1110111 aaaae
b11 aaaaf

#4000
b11101010 aaaaa
b100 aaaab
b11101110 aaaae
b100 aaaaf

#5000
b1100100 aaaaa
b101 aaaab
b1100100 aaaae
b101 aaaaf

#6000
b1101011 aaaaa
b110 aaaab
b1101111 aaaae
b110 aaaaf

#7000
b1110011 aaaaa
b111 aaaab
b1110111 aaaae
b111 aaaaf

#8000
b1101110 aaaaa
b1000 aaaab
b1101110 aaaae
b1000 aaaaf

#9000
b11101010 aaaaa
b1001 aaaab
b11101110 aaaae
b1001 aaaaf

#10000
b1100100 aaaaa
b1010 aaaab
b1100100 aaaae
b1010 aaaaf

#11000
b1110011 aaaaa
b1011 aaaab
b1110111 aaaae
b1011 aaaaf

#12000
b1101011 aaaaa
b1100 aaaab
b1101111 aaaae
b1100 aaaaf

#13000
b11101010 aaaaa
b1101 aaaab
b11101110 aaaae
b1101 aaaaf

#14000
b1100100 aaaaa
b1110 aaaab
b1100100 aaaae
b1110 aaaaf

#15000
b11100110 aaaaa
b1111 aaaab
b11100110 aaaae
b1111 aaaaf

#16000
b1101000 aaaaa
b10000 aaaab
b1101100 aaaae
b10000 aaaaf

#17000
b1110101 aaaaa
b10001 aaaab
b1110101 aaaae
b10001 aaaaf

#18000
b1101000 aaaaa
b10010 aaaab
b1101100 aaaae
b10010 aaaaf

#19000
b1101011 aaaaa
b10011 aaaab
b1101111 aaaae
b10011 aaaaf

#20000
b1101101 aaaaa
b10100 aaaab
b1101101 aaaae
b10100 aaaaf

#21000
b1101110 aaaaa
b10101 aaaab
b1101110 aaaae
b10101 aaaaf

#22000
b10110 aaaab
b10110 aaaaf

#23000
b11100110 aaaaa
b10111 aaaab
b11100110 aaaae
b10111 aaaaf

#24000
b1101011 aaaaa
b11000 aaaab
b1101111 aaaae
b11000 aaaaf

#25000
b1100011 aaaaa
b11001 aaaab
b1100111 aaaae
b11001 aaaaf

#26000
b11101010 aaaaa
b11010 aaaab
b11101110 aaaae
b11010 aaaaf

#27000
b1100100 aaaaa
b11011 aaaab
b1100100 aaaae
b11011 aaaaf

#28000
b11100110 aaaaa
b11100 aaaab
b11100110 aaaae
b11100 aaaaf

#29000
b1101011 aaaaa
b11101 aaaab
b1101111 aaaae
b11101 aaaaf

#30000
b1100011 aaaaa
b11110 aaaab
b1100111 aaaae
b11110 aaaaf

#31000
b11101010 aaaaa
b11111 aaaab
b11101110 aaaae
b11111 aaaaf

#32000
b1100100 aaaaa
b100000 aaaab
b1100100 aaaae
b100000 aaaaf

#33000
b11101100 aaaaa
b100001 aaaab
b11101100 aaaae
b100001 aaaaf

#34000
b11110010 aaaaa
b100010 aaaab
b11110110 aaaae
b100010 aaaaf

#35000
b100011 aaaab
b100011 aaaaf

#36000
b11110100 aaaaa
b100100 aaaab
b11110100 aaaae
b100100 aaaaf

#37000
b100101 aaaab
b100101 aaaaf

#38000
b100110 aaaab
b100110 aaaaf

#39000
b1100100 aaaaa
b100111 aaaab
b1100100 aaaae
b100111 aaaaf

#40000
b101000 aaaab
b101000 aaaaf

#41000
b11100011 aaaaa
b101001 aaaab
b11100111 aaaae
b101001 aaaaf

#42000
b101010 aaaab
b101010 aaaaf

#43000
b101011 aaaab
b101011 aaaaf

#44000
b1110110 aaaaa
b101100 aaaab
b1110110 aaaae
b101100 aaaaf

#45000
b11100110 aaaaa
b101101 aaaab
b11100110 aaaae
b101101 aaaaf

#46000
b11110010 aaaaa
b101110 aaaab
b11110110 aaaae
b101110 aaaaf

#47000
b101111 aaaab
b101111 aaaaf

#48000
b1100100 aaaaa
b110000 aaaab
b1100100 aaaae
b110000 aaaaf

#49000
b110001 aaaab
b110001 aaaaf

#50000
b11101100 aaaaa
b110010 aaaab
b11101100 aaaae
b110010 aaaaf

#51000
b1110011 aaaaa
b110011 aaaab
b1110111 aaaae
b110011 aaaaf

#52000
b1100100 aaaaa
b110100 aaaab
b1100100 aaaae
b110100 aaaaf

#53000
b11101100 aaaaa
b110101 aaaab
b11101100 aaaae
b110101 aaaaf

#54000
b11100110 aaaaa
b110110 aaaab
b11100110 aaaae
b110110 aaaaf

#55000
b1101011 aaaaa
b110111 aaaab
b1101111 aaaae
b110111 aaaaf

#56000
b11101010 aaaaa
b111000 aaaab
b11101110 aaaae
b111000 aaaaf

#57000
b1101011 aaaaa
b111001 aaaab
b1101111 aaaae
b111001 aaaaf

#58000
b11101010 aaaaa
b111010 aaaab
b11101110 aaaae
b111010 aaaaf

#59000
b11100110 aaaaa
b111011 aaaab
b11100110 aaaae
b111011 aaaaf

#60000
b1101011 aaaaa
b111100 aaaab
b1101111 aaaae
b111100 aaaaf

#61000
b1100011 aaaaa
b111101 aaaab
b1100111 aaaae
b111101 aaaaf

#62000
b11100110 aaaaa
b111110 aaaab
b11100110 aaaae
b111110 aaaaf

#63000
b11101100 aaaaa
b111111 aaaab
b11101100 aaaae
b111111 aaaaf

#64000
b1100100 aaaaa
b1000000 aaaab
b1100100 aaaae
b1000000 aaaaf

#65000
b1101011 aaaaa
b1000001 aaaab
b1101111 aaaae
b1000001 aaaaf

#66000
b11100110 aaaaa
b1000010 aaaab
b11100110 aaaae
b1000010 aaaaf

#67000
b11101010 aaaaa
b1000011 aaaab
b11101110 aaaae
b1000011 aaaaf

#68000
b1100011 aaaaa
b1000100 aaaab
b1100111 aaaae
b1000100 aaaaf

#69000
b11101001 aaaaa
b1000101 aaaab
b11101101 aaaae
b1000101 aaaaf

#70000
b11100101 aaaaa
b1000110 aaaab
b11100101 aaaae
b1000110 aaaaf

#71000
b11101111 aaaaa
b1000111 aaaab
b11101111 aaaae
b1000111 aaaaf

#72000
b11101001 aaaaa
b1001000 aaaab
b11101101 aaaae
b1001000 aaaaf

#73000
b11110010 aaaaa
b1001001 aaaab
b11110110 aaaae
b1001001 aaaaf

#74000
b1110101 aaaaa
b1001010 aaaab
b1110101 aaaae
b1001010 aaaaf

#75000
b11110100 aaaaa
b1001011 aaaab
b11110100 aaaae
b1001011 aaaaf

#76000
b11101111 aaaaa
b1001100 aaaab
b11101111 aaaae
b1001100 aaaaf

#77000
b11100101 aaaaa
b1001101 aaaab
b11100101 aaaae
b1001101 aaaaf

#78000
b1101011 aaaaa
b1001110 aaaab
b1101111 aaaae
b1001110 aaaaf

#79000
b11100110 aaaaa
b1001111 aaaab
b11100110 aaaae
b1001111 aaaaf

#80000
b11101100 aaaaa
b1010000 aaaab
b11101100 aaaae
b1010000 aaaaf

#81000
b11101010 aaaaa
b1010001 aaaab
b11101110 aaaae
b1010001 aaaaf

#82000
b1100100 aaaaa
b1010010 aaaab
b1100100 aaaae
b1010010 aaaaf

#83000
b1101011 aaaaa
b1010011 aaaab
b1101111 aaaae
b1010011 aaaaf

#84000
b11100110 aaaaa
b1010100 aaaab
b11100110 aaaae
b1010100 aaaaf

#85000
b11101010 aaaaa
b1010101 aaaab
b11101110 aaaae
b1010101 aaaaf

#86000
b1100011 aaaaa
b1010110 aaaab
b1100111 aaaae
b1010110 aaaaf

#87000
b1101101 aaaaa
b1010111 aaaab
b1101101 aaaae
b1010111 aaaaf

#88000
b11100011 aaaaa
b1011000 aaaab
b11100111 aaaae
b1011000 aaaaf

#89000
b1101011 aaaaa
b1011001 aaaab
b1101111 aaaae
b1011001 aaaaf

#90000
b11101010 aaaaa
b1011010 aaaab
b11101110 aaaae
b1011010 aaaaf

#91000
b11101100 aaaaa
b1011011 aaaab
b11101100 aaaae
b1011011 aaaaf

#92000
b1101011 aaaaa
b1011100 aaaab
b1101111 aaaae
b1011100 aaaaf

#93000
b11101010 aaaaa
b1011101 aaaab
b11101110 aaaae
b1011101 aaaaf

#94000
b11101100 aaaaa
b1011110 aaaab
b11101100 aaaae
b1011110 aaaaf

#95000
b1110011 aaaaa
b1011111 aaaab
b1110111 aaaae
b1011111 aaaaf

#96000
b1101011 aaaaa
b1100000 aaaab
b1101111 aaaae
b1100000 aaaaf

#97000
b1100100 aaaaa
b1100001 aaaab
b1100100 aaaae
b1100001 aaaaf

#98000
b11100110 aaaaa
b1100010 aaaab
b11100110 aaaae
b1100010 aaaaf

#99000
b11101010 aaaaa
b1100011 aaaab
b11101110 aaaae
b1100011 aaaaf

#100000
b11101001 aaaaa
b1100100 aaaab
b11101101 aaaae
b1100100 aaaaf

#101000
b11110010 aaaaa
b1100101 aaaab
b11110110 aaaae
b1100101 aaaaf

#102000
b1110101 aaaaa
b1100110 aaaab
b1110101 aaaae
b1100110 aaaaf

#103000
b11100101 aaaaa
b1100111 aaaab
b11100101 aaaae
b1100111 aaaaf

#104000
b11101111 aaaaa
b1101000 aaaab
b11101111 aaaae
b1101000 aaaaf

#105000
b11110010 aaaaa
b1101001 aaaab
b11110110 aaaae
b1101001 aaaaf

#106000
b11101001 aaaaa
b1101010 aaaab
b11101101 aaaae
b1101010 aaaaf

#107000
b11110111 aaaaa
b1101011 aaaab
b11110111 aaaae
b1101011 aaaaf

#108000
b1110000 aaaaa
b1101100 aaaab
b1110100 aaaae
b1101100 aaaaf

#109000
b11100101 aaaaa
b1101101 aaaab
b11100101 aaaae
b1101101 aaaaf

#110000
b11101111 aaaaa
b1101110 aaaab
b11101111 aaaae
b1101110 aaaaf

#111000
b11101001 aaaaa
b1101111 aaaab
b11101101 aaaae
b1101111 aaaaf

#112000
b11110010 aaaaa
b1110000 aaaab
b11110110 aaaae
b1110000 aaaaf

#113000
b11101100 aaaaa
b1110001 aaaab
b11101100 aaaae
b1110001 aaaaf

#114000
b1110010 aaaab
b1110010 aaaaf

#115000
b1101011 aaaaa
b1110011 aaaab
b1101111 aaaae
b1110011 aaaaf

#116000
b11101010 aaaaa
b1110100 aaaab
b11101110 aaaae
b1110100 aaaaf

#117000
b1100001 aaaaa
b1110101 aaaab
b1100101 aaaae
b1110101 aaaaf

#118000
b1110011 aaaaa
b1110110 aaaab
b1110111 aaaae
b1110110 aaaaf

#119000
b1100100 aaaaa
b1110111 aaaab
b1100100 aaaae
b1110111 aaaaf

#120000
b1101101 aaaaa
b1111000 aaaab
b1101101 aaaae
b1111000 aaaaf

#121000
b1101110 aaaaa
b1111001 aaaab
b1101110 aaaae
b1111001 aaaaf

#122000
b11111000 aaaaa
b1111010 aaaab
b11111100 aaaae
b1111010 aaaaf

#123000
b1100010 aaaaa
b1111011 aaaab
b1100110 aaaae
b1111011 aaaaf

#124000
b11100011 aaaaa
b1111100 aaaab
b11100111 aaaae
b1111100 aaaaf

#125000
b1110110 aaaaa
b1111101 aaaab
b1110110 aaaae
b1111101 aaaaf

#126000
b1100100 aaaaa
b1111110 aaaab
b1100100 aaaae
b1111110 aaaaf

#127000
b11101010 aaaaa
b1111111 aaaab
b11101110 aaaae
b1111111 aaaaf

#128000
b11100110 aaaaa
b10000000 aaaab
b11100110 aaaae
b10000000 aaaaf

#129000
b1101000 aaaaa
b10000001 aaaab
b1101100 aaaae
b10000001 aaaaf

#130000
b1110011 aaaaa
b10000010 aaaab
b1110111 aaaae
b10000010 aaaaf

#131000
b1101011 aaaaa
b10000011 aaaab
b1101111 aaaae
b10000011 aaaaf

#132000
b1110101 aaaaa
b10000100 aaaab
b1110101 aaaae
b10000100 aaaaf

#133000
b11110111 aaaaa
b10000101 aaaab
b11110111 aaaae
b10000101 aaaaf

#134000
b11101001 aaaaa
b10000110 aaaab
b11101101 aaaae
b10000110 aaaaf

#135000
b11110010 aaaaa
b10000111 aaaab
b11110110 aaaae
b10000111 aaaaf

#136000
b1111001 aaaaa
b10001000 aaaab
b1111101 aaaae
b10001000 aaaaf

#137000
b11100101 aaaaa
b10001001 aaaab
b11100101 aaaae
b10001001 aaaaf

#138000
b11101010 aaaaa
b10001010 aaaab
b11101110 aaaae
b10001010 aaaaf

#139000
b1101000 aaaaa
b10001011 aaaab
b1101100 aaaae
b10001011 aaaaf

#140000
b1101011 aaaaa
b10001100 aaaab
b1101111 aaaae
b10001100 aaaaf

#141000
b11101010 aaaaa
b10001101 aaaab
b11101110 aaaae
b10001101 aaaaf

#142000
b1110011 aaaaa
b10001110 aaaab
b1110111 aaaae
b10001110 aaaaf

#143000
b1101000 aaaaa
b10001111 aaaab
b1101100 aaaae
b10001111 aaaaf

#144000
b1100100 aaaaa
b10010000 aaaab
b1100100 aaaae
b10010000 aaaaf

#145000
b11100110 aaaaa
b10010001 aaaab
b11100110 aaaae
b10010001 aaaaf

#146000
b11111000 aaaaa
b10010010 aaaab
b11111100 aaaae
b10010010 aaaaf

#147000
b1101110 aaaaa
b10010011 aaaab
b1101110 aaaae
b10010011 aaaaf

#148000
b1110110 aaaaa
b10010100 aaaab
b1110110 aaaae
b10010100 aaaaf

#149000
b1100010 aaaaa
b10010101 aaaab
b1100110 aaaae
b10010101 aaaaf

#150000
b11111000 aaaaa
b10010110 aaaab
b11111100 aaaae
b10010110 aaaaf

#151000
b1101101 aaaaa
b10010111 aaaab
b1101101 aaaae
b10010111 aaaaf

#152000
b11100011 aaaaa
b10011000 aaaab
b11100111 aaaae
b10011000 aaaaf

#153000
b1100010 aaaaa
b10011001 aaaab
b1100110 aaaae
b10011001 aaaaf

#154000
b1101110 aaaaa
b10011010 aaaab
b1101110 aaaae
b10011010 aaaaf

#155000
b1110110 aaaaa
b10011011 aaaab
b1110110 aaaae
b10011011 aaaaf

#156000
b1101000 aaaaa
b10011100 aaaab
b1101100 aaaae
b10011100 aaaaf

#157000
b11101010 aaaaa
b10011101 aaaab
b11101110 aaaae
b10011101 aaaaf

#158000
b1101011 aaaaa
b10011110 aaaab
b1101111 aaaae
b10011110 aaaaf

#159000
b1101000 aaaaa
b10011111 aaaab
b1101100 aaaae
b10011111 aaaaf

#160000
b11101010 aaaaa
b10100000 aaaab
b11101110 aaaae
b10100000 aaaaf

#161000
b1101011 aaaaa
b10100001 aaaab
b1101111 aaaae
b10100001 aaaaf

#162000
b1110011 aaaaa
b10100010 aaaab
b1110111 aaaae
b10100010 aaaaf

#163000
b1101000 aaaaa
b10100011 aaaab
b1101100 aaaae
b10100011 aaaaf

#164000
b11100110 aaaaa
b10100100 aaaab
b11100110 aaaae
b10100100 aaaaf

#165000
b11101010 aaaaa
b10100101 aaaab
b11101110 aaaae
b10100101 aaaaf

#166000
b1110011 aaaaa
b10100110 aaaab
b1110111 aaaae
b10100110 aaaaf

#167000
b1101011 aaaaa
b10100111 aaaab
b1101111 aaaae
b10100111 aaaaf

#168000
b1100100 aaaaa
b10101000 aaaab
b1100100 aaaae
b10101000 aaaaf

#169000
b11101010 aaaaa
b10101001 aaaab
b11101110 aaaae
b10101001 aaaaf

#170000
b11100110 aaaaa
b10101010 aaaab
b11100110 aaaae
b10101010 aaaaf

#171000
b1110011 aaaaa
b10101011 aaaab
b1110111 aaaae
b10101011 aaaaf

#172000
b1101000 aaaaa
b10101100 aaaab
b1101100 aaaae
b10101100 aaaaf

#173000
b1101011 aaaaa
b10101101 aaaab
b1101111 aaaae
b10101101 aaaaf

#174000
b1100100 aaaaa
b10101110 aaaab
b1100100 aaaae
b10101110 aaaaf

#175000
b11100110 aaaaa
b10101111 aaaab
b11100110 aaaae
b10101111 aaaaf

#176000
b11101010 aaaaa
b10110000 aaaab
b11101110 aaaae
b10110000 aaaaf

#177000
b1101000 aaaaa
b10110001 aaaab
b1101100 aaaae
b10110001 aaaaf

#178000
b1101011 aaaaa
b10110010 aaaab
b1101111 aaaae
b10110010 aaaaf

#179000
b1110011 aaaaa
b10110011 aaaab
b1110111 aaaae
b10110011 aaaaf

#180000
b11101010 aaaaa
b10110100 aaaab
b11101110 aaaae
b10110100 aaaaf

#181000
b1100100 aaaaa
b10110101 aaaab
b1100100 aaaae
b10110101 aaaaf

#182000
b11100110 aaaaa
b10110110 aaaab
b11100110 aaaae
b10110110 aaaaf

#183000
b1101000 aaaaa
b10110111 aaaab
b1101100 aaaae
b10110111 aaaaf

#184000
b1101011 aaaaa
b10111000 aaaab
b1101111 aaaae
b10111000 aaaaf

#185000
b1110011 aaaaa
b10111001 aaaab
b1110111 aaaae
b10111001 aaaaf

#186000
b11101010 aaaaa
b10111010 aaaab
b11101110 aaaae
b10111010 aaaaf

#187000
b1100100 aaaaa
b10111011 aaaab
b1100100 aaaae
b10111011 aaaaf

#188000
b11100110 aaaaa
b10111100 aaaab
b11100110 aaaae
b10111100 aaaaf

#189000
b1101000 aaaaa
b10111101 aaaab
b1101100 aaaae
b10111101 aaaaf

#190000
b1110011 aaaaa
b10111110 aaaab
b1110111 aaaae
b10111110 aaaaf

#191000
b1101011 aaaaa
b10111111 aaaab
b1101111 aaaae
b10111111 aaaaf

#192000
b11101010 aaaaa
b11000000 aaaab
b11101110 aaaae
b11000000 aaaaf

#193000
b1100100 aaaaa
b11000001 aaaab
b1100100 aaaae
b11000001 aaaaf

#194000
b1101000 aaaaa
b11000010 aaaab
b1101100 aaaae
b11000010 aaaaf

#195000
b11100110 aaaaa
b11000011 aaaab
b11100110 aaaae
b11000011 aaaaf

#196000
b1101011 aaaaa
b11000100 aaaab
b1101111 aaaae
b11000100 aaaaf

#197000
b1110011 aaaaa
b11000101 aaaab
b1110111 aaaae
b11000101 aaaaf

#198000
b11101010 aaaaa
b11000110 aaaab
b11101110 aaaae
b11000110 aaaaf

#199000
b1100100 aaaaa
b11000111 aaaab
b1100100 aaaae
b11000111 aaaaf

#200000
b11100110 aaaaa
b11001000 aaaab
b11100110 aaaae
b11001000 aaaaf

#201000
b1101000 aaaaa
b11001001 aaaab
b1101100 aaaae
b11001001 aaaaf

#202000
b1110011 aaaaa
b11001010 aaaab
b1110111 aaaae
b11001010 aaaaf

#203000
b1101011 aaaaa
b11001011 aaaab
b1101111 aaaae
b11001011 aaaaf

#204000
b11101010 aaaaa
b11001100 aaaab
b11101110 aaaae
b11001100 aaaaf

#205000
b11100110 aaaaa
b11001101 aaaab
b11100110 aaaae
b11001101 aaaaf

#206000
b1100100 aaaaa
b11001110 aaaab
b1100100 aaaae
b11001110 aaaaf

#207000
b1101000 aaaaa
b11001111 aaaab
b1101100 aaaae
b11001111 aaaaf

#208000
b1101110 aaaaa
b11010000 aaaab
b1101110 aaaae
b11010000 aaaaf

#209000
b1101101 aaaaa
b11010001 aaaab
b1101101 aaaae
b11010001 aaaaf

#210000
b11101001 aaaaa
b11010010 aaaab
b11101101 aaaae
b11010010 aaaaf

#211000
b11110111 aaaaa
b11010011 aaaab
b11110111 aaaae
b11010011 aaaaf

#212000
b1110101 aaaaa
b11010100 aaaab
b1110101 aaaae
b11010100 aaaaf

#213000
b11110010 aaaaa
b11010101 aaaab
b11110110 aaaae
b11010101 aaaaf

#214000
b1111001 aaaaa
b11010110 aaaab
b1111101 aaaae
b11010110 aaaaf

#215000
b1110000 aaaaa
b11010111 aaaab
b1110100 aaaae
b11010111 aaaaf

#216000
b11101111 aaaaa
b11011000 aaaab
b11101111 aaaae
b11011000 aaaaf

#217000
b11101001 aaaaa
b11011001 aaaab
b11101101 aaaae
b11011001 aaaaf

#218000
b1110000 aaaaa
b11011010 aaaab
b1110100 aaaae
b11011010 aaaaf

#219000
b11110111 aaaaa
b11011011 aaaab
b11110111 aaaae
b11011011 aaaaf

#220000
b11100101 aaaaa
b11011100 aaaab
b11100101 aaaae
b11011100 aaaaf

#221000
b11110010 aaaaa
b11011101 aaaab
b11110110 aaaae
b11011101 aaaaf

#222000
b11110111 aaaaa
b11011110 aaaab
b11110111 aaaae
b11011110 aaaaf

#223000
b1110000 aaaaa
b11011111 aaaab
b1110100 aaaae
b11011111 aaaaf

#224000
b11100101 aaaaa
b11100000 aaaab
b11100101 aaaae
b11100000 aaaaf

#225000
b11101111 aaaaa
b11100001 aaaab
b11101111 aaaae
b11100001 aaaaf

#226000
b11110010 aaaaa
b11100010 aaaab
b11110110 aaaae
b11100010 aaaaf

#227000
b11101001 aaaaa
b11100011 aaaab
b11101101 aaaae
b11100011 aaaaf

#228000
b11110111 aaaaa
b11100100 aaaab
b11110111 aaaae
b11100100 aaaaf

#229000
b11100101 aaaaa
b11100101 aaaab
b11100101 aaaae
b11100101 aaaaf

#230000
b1101011 aaaaa
b11100110 aaaab
b1101111 aaaae
b11100110 aaaaf

#231000
b11101100 aaaaa
b11100111 aaaab
b11101100 aaaae
b11100111 aaaaf

#232000
b1110011 aaaaa
b11101000 aaaab
b1110111 aaaae
b11101000 aaaaf

#233000
b1100100 aaaaa
b11101001 aaaab
b1100100 aaaae
b11101001 aaaaf

#234000
b11101111 aaaaa
b11101010 aaaab
b11101111 aaaae
b11101010 aaaaf

#235000
b1110011 aaaaa
b11101011 aaaab
b1110111 aaaae
b11101011 aaaaf

#236000
b1110000 aaaaa
b11101100 aaaab
b1110100 aaaae
b11101100 aaaaf

#237000
b1100100 aaaaa
b11101101 aaaab
b1100100 aaaae
b11101101 aaaaf

#238000
b11101001 aaaaa
b11101110 aaaab
b11101101 aaaae
b11101110 aaaaf

#239000
b11100110 aaaaa
b11101111 aaaab
b11100110 aaaae
b11101111 aaaaf

#240000
b1110011 aaaaa
b11110000 aaaab
b1110111 aaaae
b11110000 aaaaf

#241000
b1100100 aaaaa
b11110001 aaaab
b1100100 aaaae
b11110001 aaaaf

#242000
b11100110 aaaaa
b11110010 aaaab
b11100110 aaaae
b11110010 aaaaf

#243000
b11101111 aaaaa
b11110011 aaaab
b11101111 aaaae
b11110011 aaaaf

#244000
b11100101 aaaaa
b11110100 aaaab
b11100101 aaaae
b11110100 aaaaf

#245000
b11110010 aaaaa
b11110101 aaaab
b11110110 aaaae
b11110101 aaaaf

#246000
b11110111 aaaaa
b11110110 aaaab
b11110111 aaaae
b11110110 aaaaf

#247000
b1101011 aaaaa
b11110111 aaaab
b1101111 aaaae
b11110111 aaaaf

#248000
b11100101 aaaaa
b11111000 aaaab
b11100101 aaaae
b11111000 aaaaf

#249000
b11110010 aaaaa
b11111001 aaaab
b11110110 aaaae
b11111001 aaaaf

#250000
b11101010 aaaaa
b11111010 aaaab
b11101110 aaaae
b11111010 aaaaf

#251000
b11110111 aaaaa
b11111011 aaaab
b11110111 aaaae
b11111011 aaaaf

#252000
b11100101 aaaaa
b11111100 aaaab
b11100101 aaaae
b11111100 aaaaf

#253000
b11101100 aaaaa
b11111101 aaaab
b11101100 aaaae
b11111101 aaaaf

#254000
b11100110 aaaaa
b11111110 aaaab
b11100110 aaaae
b11111110 aaaaf

#255000
b1110011 aaaaa
b11111111 aaaab
b1110111 aaaae
b11111111 aaaaf

#256000
b11101001 aaaaa
b100000000 aaaab
b11101101 aaaae
b100000000 aaaaf

#257000
b1100100 aaaaa
b100000001 aaaab
b1100100 aaaae
b100000001 aaaaf

#258000
b11101111 aaaaa
b100000010 aaaab
b11101111 aaaae
b100000010 aaaaf

#259000
b1110000 aaaaa
b100000011 aaaab
b1110100 aaaae
b100000011 aaaaf

#260000
b11100110 aaaaa
b100000100 aaaab
b11100110 aaaae
b100000100 aaaaf

#261000
b1110101 aaaaa
b100000101 aaaab
b1110101 aaaae
b100000101 aaaaf

#262000
b1110011 aaaaa
b100000110 aaaab
b1110111 aaaae
b100000110 aaaaf

#263000
b1100100 aaaaa
b100000111 aaaab
b1100100 aaaae
b100000111 aaaaf

#264000
b11101001 aaaaa
b100001000 aaaab
b11101101 aaaae
b100001000 aaaaf

#265000
b11101111 aaaaa
b100001001 aaaab
b11101111 aaaae
b100001001 aaaaf

#266000
b1110101 aaaaa
b100001010 aaaab
b1110101 aaaae
b100001010 aaaaf

#267000
b11100110 aaaaa
b100001011 aaaab
b11100110 aaaae
b100001011 aaaaf

#268000
b1110011 aaaaa
b100001100 aaaab
b1110111 aaaae
b100001100 aaaaf

#269000
b11101111 aaaaa
b100001101 aaaab
b11101111 aaaae
b100001101 aaaaf

#270000
b1101011 aaaaa
b100001110 aaaab
b1101111 aaaae
b100001110 aaaaf

#271000
b11101010 aaaaa
b100001111 aaaab
b11101110 aaaae
b100001111 aaaaf

#272000
b11100101 aaaaa
b100010000 aaaab
b11100101 aaaae
b100010000 aaaaf

#273000
b11110111 aaaaa
b100010001 aaaab
b11110111 aaaae
b100010001 aaaaf

#274000
b11101100 aaaaa
b100010010 aaaab
b11101100 aaaae
b100010010 aaaaf

#275000
b11110010 aaaaa
b100010011 aaaab
b11110110 aaaae
b100010011 aaaaf

#276000
b1101011 aaaaa
b100010100 aaaab
b1101111 aaaae
b100010100 aaaaf

#277000
b11100101 aaaaa
b100010101 aaaab
b11100101 aaaae
b100010101 aaaaf

#278000
b11101010 aaaaa
b100010110 aaaab
b11101110 aaaae
b100010110 aaaaf

#279000
b11110010 aaaaa
b100010111 aaaab
b11110110 aaaae
b100010111 aaaaf

#280000
b11101100 aaaaa
b100011000 aaaab
b11101100 aaaae
b100011000 aaaaf

#281000
b11110111 aaaaa
b100011001 aaaab
b11110111 aaaae
b100011001 aaaaf

#282000
b1101011 aaaaa
b100011010 aaaab
b1101111 aaaae
b100011010 aaaaf

#283000
b11100101 aaaaa
b100011011 aaaab
b11100101 aaaae
b100011011 aaaaf

#284000
b11110010 aaaaa
b100011100 aaaab
b11110110 aaaae
b100011100 aaaaf

#285000
b11101010 aaaaa
b100011101 aaaab
b11101110 aaaae
b100011101 aaaaf

#286000
b1110000 aaaaa
b100011110 aaaab
b1110100 aaaae
b100011110 aaaaf

#287000
b1100100 aaaaa
b100011111 aaaab
b1100100 aaaae
b100011111 aaaaf

#288000
b1110011 aaaaa
b100100000 aaaab
b1110111 aaaae
b100100000 aaaaf

#289000
b11101111 aaaaa
b100100001 aaaab
b11101111 aaaae
b100100001 aaaaf

#290000
b11100110 aaaaa
b100100010 aaaab
b11100110 aaaae
b100100010 aaaaf

#291000
b1110011 aaaaa
b100100011 aaaab
b1110111 aaaae
b100100011 aaaaf

#292000
b1100100 aaaaa
b100100100 aaaab
b1100100 aaaae
b100100100 aaaaf

#293000
b11100110 aaaaa
b100100101 aaaab
b11100110 aaaae
b100100101 aaaaf

#294000
b11101010 aaaaa
b100100110 aaaab
b11101110 aaaae
b100100110 aaaaf

#295000
b1101101 aaaaa
b100100111 aaaab
b1101101 aaaae
b100100111 aaaaf

#296000
b1101000 aaaaa
b100101000 aaaab
b1101100 aaaae
b100101000 aaaaf

#297000
b1110011 aaaaa
b100101001 aaaab
b1110111 aaaae
b100101001 aaaaf

#298000
b1100100 aaaaa
b100101010 aaaab
b1100100 aaaae
b100101010 aaaaf

#299000
b1101011 aaaaa
b100101011 aaaab
b1101111 aaaae
b100101011 aaaaf

#300000
b11101100 aaaaa
b100101100 aaaab
b11101100 aaaae
b100101100 aaaaf

#301000
b11100110 aaaaa
b100101101 aaaab
b11100110 aaaae
b100101101 aaaaf

#302000
b11101010 aaaaa
b100101110 aaaab
b11101110 aaaae
b100101110 aaaaf

#303000
b11101100 aaaaa
b100101111 aaaab
b11101100 aaaae
b100101111 aaaaf

#304000
b1101011 aaaaa
b100110000 aaaab
b1101111 aaaae
b100110000 aaaaf

#305000
b1100100 aaaaa
b100110001 aaaab
b1100100 aaaae
b100110001 aaaaf

#306000
b11100011 aaaaa
b100110010 aaaab
b11100111 aaaae
b100110010 aaaaf

#307000
b1101110 aaaaa
b100110011 aaaab
b1101110 aaaae
b100110011 aaaaf

#308000
b1110110 aaaaa
b100110100 aaaab
b1110110 aaaae
b100110100 aaaaf

#309000
b1100010 aaaaa
b100110101 aaaab
b1100110 aaaae
b100110101 aaaaf

#310000
b11111000 aaaaa
b100110110 aaaab
b11111100 aaaae
b100110110 aaaaf

#311000
b11100011 aaaaa
b100110111 aaaab
b11100111 aaaae
b100110111 aaaaf

#312000
b1101101 aaaaa
b100111000 aaaab
b1101101 aaaae
b100111000 aaaaf

#313000
b1100010 aaaaa
b100111001 aaaab
b1100110 aaaae
b100111001 aaaaf

#314000
b11100011 aaaaa
b100111010 aaaab
b11100111 aaaae
b100111010 aaaaf

#315000
b1101110 aaaaa
b100111011 aaaab
b1101110 aaaae
b100111011 aaaaf

#316000
b11111000 aaaaa
b100111100 aaaab
b11111100 aaaae
b100111100 aaaaf

#317000
b1101101 aaaaa
b100111101 aaaab
b1101101 aaaae
b100111101 aaaaf

#318000
b1110110 aaaaa
b100111110 aaaab
b1110110 aaaae
b100111110 aaaaf

#319000
b11100011 aaaaa
b100111111 aaaab
b11100111 aaaae
b100111111 aaaaf

#320000
b1101101 aaaaa
b101000000 aaaab
b1101101 aaaae
b101000000 aaaaf

#321000
b11111000 aaaaa
b101000001 aaaab
b11111100 aaaae
b101000001 aaaaf

#322000
b1100010 aaaaa
b101000010 aaaab
b1100110 aaaae
b101000010 aaaaf

#323000
b1101110 aaaaa
b101000011 aaaab
b1101110 aaaae
b101000011 aaaaf

#324000
b11100011 aaaaa
b101000100 aaaab
b11100111 aaaae
b101000100 aaaaf

