lab2/files/ram_wave.vcd
$date
     Oct 07, 2015       11:43:23
$end

$version
 SystemC 2.3.1-Accellera --- Sep  4 2015 19:05:33
$end

$timescale
     1 ps
$end

$scope module SystemC $end
$var wire    8  aaaaa  data [7:0]  $end
$var wire   32  aaaab  address [31:0]  $end
$var wire    1  aaaac  CE       $end
$var wire    1  aaaad  WE       $end
$upscope $end
$enddefinitions  $end

$comment
All initial values are dumped below at time 0 sec = 0 timescale units.
$end

$dumpvars
b0 aaaaa
b0 aaaab
0aaaac
0aaaad
$end

#0
b1101100 aaaaa
1aaaac

#1000
b1100001 aaaaa
b1 aaaab

#2000
b1101011 aaaaa
b10 aaaab

#3000
b1110011 aaaaa
b11 aaaab

#4000
b1101010 aaaaa
b100 aaaab

#5000
b1001 aaaab

#6000
b1110101 aaaaa
b10001 aaaab

#7000
b1101000 aaaaa
b10010 aaaab

#8000
b1101011 aaaaa
b10011 aaaab

#9000
b1101101 aaaaa
b10100 aaaab

#10000
b1101110 aaaaa
b10101 aaaab

#11000
b10110 aaaab

#12000
b1100110 aaaaa
b10111 aaaab

#13000
b1101011 aaaaa
b11000 aaaab

#14000
b1100111 aaaaa
b11001 aaaab

#15000
b1101010 aaaaa
b11010 aaaab

#16000
b1100100 aaaaa
b11011 aaaab

#17000
b1110010 aaaaa
b100010 aaaab

#18000
b100011 aaaab

#19000
b1110100 aaaaa
b100100 aaaab

#20000
b100101 aaaab

#21000
b100110 aaaab

#22000
b1100100 aaaaa
b100111 aaaab

#23000
b101000 aaaab

#24000
b1100011 aaaaa
b101001 aaaab

#25000
b101010 aaaab

#26000
b101011 aaaab

#27000
b1110110 aaaaa
b101100 aaaab

#28000
b1100110 aaaaa
b101101 aaaab

#29000
b1110010 aaaaa
b101110 aaaab

#30000
b101111 aaaab

#31000
b1100100 aaaaa
b110000 aaaab

#32000
b110001 aaaab

#33000
b1101100 aaaaa
b110010 aaaab

#34000
b1110011 aaaaa
b110011 aaaab

#35000
b1100100 aaaaa
b110100 aaaab

#36000
b1101100 aaaaa
b110101 aaaab

#37000
b1100110 aaaaa
b110110 aaaab

#38000
b1101011 aaaaa
b110111 aaaab

#39000
b1101010 aaaaa
b111000 aaaab

#40000
b1101011 aaaaa
b111001 aaaab

#41000
b1101010 aaaaa
b111010 aaaab

#42000
b1100110 aaaaa
b111011 aaaab

#43000
b1101011 aaaaa
b111100 aaaab

#44000
b1100111 aaaaa
b111101 aaaab

#45000
b1100110 aaaaa
b111110 aaaab

#46000
b1101100 aaaaa
b111111 aaaab

#47000
b1100100 aaaaa
b1000000 aaaab

#48000
b1101011 aaaaa
b1000001 aaaab

#49000
b1101010 aaaaa
b1111111 aaaab

#50000
b1100110 aaaaa
b10000000 aaaab

#51000
b1101000 aaaaa
b10000001 aaaab

#52000
b1110011 aaaaa
b10000010 aaaab

#53000
b1101011 aaaaa
b10000011 aaaab

#54000
b1110101 aaaaa
b10000100 aaaab

#55000
b1110111 aaaaa
b10000101 aaaab

#56000
b1101001 aaaaa
b10000110 aaaab

#57000
b1110010 aaaaa
b10000111 aaaab

#58000
b1111001 aaaaa
b10001000 aaaab

#59000
b1100101 aaaaa
b10001001 aaaab

#60000
b1101010 aaaaa
b10001010 aaaab

#61000
b1110111 aaaaa
b100010001 aaaab

#62000
b1101100 aaaaa
b100010010 aaaab

#63000
b1110010 aaaaa
b100010011 aaaab

#64000
b1101011 aaaaa
b100010100 aaaab

#65000
b1100101 aaaaa
b100010101 aaaab

#66000
b1101010 aaaaa
b100010110 aaaab

#67000
b1110010 aaaaa
b100010111 aaaab

#68000
b1101100 aaaaa
b100011000 aaaab

#69000
b1110111 aaaaa
b100011001 aaaab

#70000
b1101011 aaaaa
b100011010 aaaab

#71000
b1100101 aaaaa
b100011011 aaaab

#72000
b1110010 aaaaa
b100011100 aaaab

#73000
b1101010 aaaaa
b100011101 aaaab

#74000
b1110000 aaaaa
b100011110 aaaab

#75000
b1100100 aaaaa
b100011111 aaaab

#76000
b1110011 aaaaa
b100100000 aaaab

#77000
b1101111 aaaaa
b100100001 aaaab

#78000
b1100110 aaaaa
b100100010 aaaab

#79000
b1110011 aaaaa
b100100011 aaaab

#80000
b1100100 aaaaa
b100100100 aaaab

#81000
b1100110 aaaaa
b100100101 aaaab

#82000
b1101010 aaaaa
b100100110 aaaab

#83000
b1100100 aaaaa
b101101011 aaaab

#84000
b1110101 aaaaa
b101101100 aaaab

#85000
b1100100 aaaaa
b101101101 aaaab

#86000
b1100110 aaaaa
b101101110 aaaab

#87000
b1101010 aaaaa
b101101111 aaaab

#88000
b1101011 aaaaa
b110010111 aaaab

#89000
b1101010 aaaaa
b110011000 aaaab

#90000
b1100100 aaaaa
b110011001 aaaab

#91000
b1100110 aaaaa
b110011010 aaaab

#92000
b1101000 aaaaa
b110011011 aaaab

#93000
b1110101 aaaaa
b110011100 aaaab

#94000
b1101000 aaaaa
b110011101 aaaab

#95000
b1101011 aaaaa
b110011110 aaaab

#96000
b1101101 aaaaa
b110011111 aaaab

#97000
b1101110 aaaaa
b110100000 aaaab

#98000
b110100001 aaaab

#99000
b1101111 aaaaa
b111111001 aaaab

#100000
b1100100 aaaaa
b1101101000 aaaab

#101000
b1101011 aaaaa
b1101101001 aaaab

#102000
b1100110 aaaaa
b1101101010 aaaab

#103000
b1101010 aaaaa
b1101101011 aaaab

#104000
b1100111 aaaaa
b1101101100 aaaab

#105000
b1101101 aaaaa
b1101101101 aaaab

#106000
b1100011 aaaaa
b1101101110 aaaab

#107000
b1101011 aaaaa
b1101101111 aaaab

#108000
b1101010 aaaaa
b1101110000 aaaab

#109000
b1101100 aaaaa
b1101110001 aaaab

#110000
b1101011 aaaaa
b1101110010 aaaab

#111000
b1101010 aaaaa
b1101110011 aaaab

#112000
b1101100 aaaaa
b1101110100 aaaab

#113000
b1110110 aaaaa
b1110101010 aaaab

#114000
b1100010 aaaaa
b1110101011 aaaab

#115000
b1111000 aaaaa
b1110101100 aaaab

#116000
b1101101 aaaaa
b1110101101 aaaab

#117000
b1100011 aaaaa
b1110101110 aaaab

#118000
b1100010 aaaaa
b1110101111 aaaab

#119000
b1101110 aaaaa
b1110110000 aaaab

#120000
b1110110 aaaaa
b1110110001 aaaab

#121000
b1101000 aaaaa
b1110110010 aaaab

#122000
b1101010 aaaaa
b1110110011 aaaab

#123000
b1100100 aaaaa
b10000000011 aaaab

#124000
b1101001 aaaaa
b10000000100 aaaab

#125000
b1100110 aaaaa
b10000000101 aaaab

#126000
b1110011 aaaaa
b10000000110 aaaab

#127000
b1100100 aaaaa
b10000000111 aaaab

#128000
b1100110 aaaaa
b10000001000 aaaab

#129000
b1101111 aaaaa
b10000001001 aaaab

#130000
b1100101 aaaaa
b10000001010 aaaab

