lab2/files/ram_wave.vcd
$date
     Sep 18, 2015       16:02:23
$end

$version
 SystemC 2.3.1-Accellera --- Sep  4 2015 19:05:33
$end

$timescale
     1 ps
$end

$scope module SystemC $end
$var wire   32  aaaaa  data [31:0]  $end
$var wire   32  aaaab  address [31:0]  $end
$var wire    1  aaaac  CE       $end
$var wire    1  aaaad  WE       $end
$upscope $end
$enddefinitions  $end

$comment
All initial values are dumped below at time 0 sec = 0 timescale units.
$end

$dumpvars
b0 aaaaa
b0 aaaab
0aaaac
0aaaad
$end

#0
b10001 aaaaa
b10000 aaaab
1aaaac
1aaaad

#5000
0aaaac

#10000
b10000 aaaaa
b10010 aaaab
1aaaac

#15000
b1 aaaaa
b1000 aaaab

#20000
b10001 aaaaa
b10000 aaaab
0aaaad

#25000
b111111111111100 aaaaa
b1 aaaab

#30000
b0 aaaaa
b11 aaaab

#35000
b11111111 aaaaa
0aaaac

